ENSO on SBR onset - Data analysis
…
sbr_rep %>% 
  group_by(season) %>%
  summarise(n_reports = length(date_report)) %>% 
  arrange(n_reports)

`summarise()` ungrouping output (override with `.groups` argument)

Earliests reports per season

sbr_rep %>% 
  group_by(season) %>% 
  filter(date_report == min(date_report)) %>% 
  arrange(days_sep15)

# A tibble: 22 x 15
# Groups:   season [17]
   start_date season state location date_report Phen_state month  days   lat
   <date>     <chr>  <chr> <chr>    <date>      <chr>      <chr> <int> <dbl>
 1 2009-10-07 2010   PR    Londrina 2009-09-29  Vn         Sep       8 -23.3
 2 2018-09-07 2019   PR    Marecha~ 2018-10-31  R1         Oct      54 -24.6
 3 2012-08-07 2013   SC    São Car~ 2012-11-02  R2         Nov      87 -27.1
 4 2015-09-21 2016   PR    Ponta G~ 2015-11-07  R1         Nov      47 -25.1
 5 2005-08-07 2006   PR    Cafelân~ 2005-11-09  R3         Nov      94 -24.6
 6 2005-09-07 2006   PR    Campo M~ 2005-11-09  R2         Nov      63 -24.0
 7 2005-11-07 2006   PR    Cruzeir~ 2005-11-09  R4         Nov       2 -23.8
 8 2005-11-07 2006   PR    Mariluz  2005-11-09  R5         Nov       2 -24.0
 9 2006-11-07 2007   PR    Marecha~ 2006-11-14  V3         Nov       7 -24.6
10 2016-09-21 2017   PR    Boa Esp~ 2016-11-16  R3         Nov      56 -24.2
# ... with 12 more rows, and 6 more variables: lon <dbl>, Phen_state_int <int>,
#   start_season <date>, days_sep15 <int>, week <int>, region <chr>
…
